Manova
…
##                 Variable    n    Mean Std.Dev  Median Min     Max    25th
## 1                  Nabiz 1000  70.102   9.545  70.331  50  99.650  63.348
## 2   Kan_Basinci_Sistolik 1000 119.835  14.604 120.052  90 165.929 109.387
## 3 Kan_Basinci_Diyastolik 1000  79.855   9.642  79.652  60 107.660  73.115
## 4          Ders_Saatleri 1000  30.227  10.341  30.433   5  60.000  23.263
## 5         Proje_Saatleri 1000  14.887   4.889  14.766   0  32.720  11.574
##      75th  Skew Kurtosis
## 1  76.425 0.108    2.834
## 2 130.398 0.063    2.540
## 3  86.536 0.148    2.616
## 4  37.245 0.020    2.845
## 5  18.159 0.037    3.134
## 
## $data
## # A tibble: 1,000 × 5
##    Nabiz Kan_Basinci_Sistolik Kan_Basinci_Diyastolik Ders_Saatleri
##    <dbl>                <dbl>                  <dbl>         <dbl>
##  1  50.7                 122.                   84.4         34.5 
##  2  57.9                 111.                   75.7         16.8 
##  3  59.3                 109.                   83.8         44.2 
##  4  76.8                 125.                   78.1         21.8 
##  5  68.3                 108.                   80.7          8.96
##  6  61.7                  90                    84.5         44.9 
##  7  93.1                 107.                   76.5         10.3 
##  8  63.4                 115.                   70.0         39.6 
##  9  81.7                 143.                   74.7         37.2 
## 10  86.2                 113.                   92.0         33.2 
## # ℹ 990 more rows
## # ℹ 1 more variable: Proje_Saatleri <dbl>
## 
## $subset
## NULL
## 
## $outlierMethod
## [1] "none"
## 
…
