TBA_Faktor
…
## Stress_Seviyesi_Biosensor  Stress_Seviyesi_Bildirim    Kan_Basinci_Diyastolik 
##                 0.7512308                -0.6554310                 0.1234394 
##      Kan_Basinci_Sistolik 
##                -0.1347514

selected_vars$comp1 <- data$x[, 1]  # 1. bileşen
selected_vars$comp2 <- data$x[, 2]  # 2. bileşen
selected_vars$comp3 <- data$x[, 3]  # 3. bileşen

selected_vars$index <- 1:nrow(data$x) 
selected_vars$total_score <- selected_vars$comp1 + selected_vars$comp2 + selected_vars$comp3
print(selected_vars)

## # A tibble: 1,000 × 10
##    Nabiz Stress_Seviyesi_Biosensor Stress_Seviyesi_Bild…¹ Kan_Basinci_Diyastolik
##    <dbl>                     <dbl>                  <dbl>                  <dbl>
##  1  50.7                      3.14                   9.03                   84.4
##  2  57.9                      3.70                   5.82                   75.7
##  3  59.3                      6.79                   5.89                   83.8
##  4  76.8                      6.41                   6.88                   78.1
##  5  68.3                      7.26                   4.48                   80.7
##  6  61.7                      4.26                   6.83                   84.5
##  7  93.1                      8.42                   1.40                   76.5
##  8  63.4                      2.84                   1.49                   70.0
##  9  81.7                      5.22                   5.12                   74.7
## 10  86.2                      8.21                   5.95                   92.0
## # ℹ 990 more rows
## # ℹ abbreviated name: ¹​Stress_Seviyesi_Bildirim
## # ℹ 6 more variables: Kan_Basinci_Sistolik <dbl>, comp1 <dbl>, comp2 <dbl>,
## #   comp3 <dbl>, index <int>, total_score <dbl>
…
